-32 -16 16 -16 -16 -64 -56 720
-40 -24 32 -56 -48 -16 -8 -56 648
-32 32 -56 -32 -40 -24 -32 -64 616
-40 -56 -32 -64 -40 -64 -32 608
-32 40 -40 -32 -24 -64 -48 656
-40 8 -16 -48 -40 -64 -48 -40 624
-24 -24 16 -16 -16 -8 840
-16 8 -24 8 -8 -16 -32 824
-48 -16 -48 -48 -40 -48 -56 632
-32 -24 -24 -24 -8 -8 -8 -32 768
-48 -64 -48 -32 -8 -48 -24 -16 640
-8 -8 32 -8 -40 -40 -32 -16 744
-56 -8 -8 -56 -40 -8 -16 -16 720
-24 -16 -48 -48 -32 -24 -56 688
-64 -8 -56 -48 -8 -64 -40 -32 608
-8 -16 -64 -48 -56 -64 -40 640
-32 -16 8 -48 -56 -48 -16 -64 640
32 -40 -56 -64 -48 -48 -40 608
-64 -32 24 -8 -56 -8 -40 -40 656
-24 -24 -64 -40 -24 -40 728
40 -56 -40 -64 -32 -32 -64 -48 552
-16 -48 -16 -24 -48 -56 -64 664
-40 -24 -48 -64 -56 -32 -48 -16 600
