21

3
5
4
6
-1
-1
3
5
-2
4
10

7
4
-2
4
-1
7
5
8
-2
7
9
-3

6
20
10
-2
-1
5
6
-1
6
-1

49
-1
5
4
5
5
5
5

7
2
-1
-1
6
8
23
69
4
-1

6
28
39
5
2
5
4
1

30
1
-1
7
-2
-1
7
5
35
49
5
-2
6

2
3
4
5
6
7
8
9
10
-6

50
-1
50
-1
50
-1
50

2
3
5
10
-4
-3
-2
-1

6
2
6
3
1
8
-2
-3
3
2
48
9
-1

1
8
6
-1
-1
3
80
2
5
-3

4
80
2
6
3
1
4
-3
-1
6
-1
-1
-1

54
2
6
-1
56
30
2
-4
2
6
7

3
10
-1
2
6
8
2
-2

10
-1
10
-1
10
-1
10
-1
10
-1
10
-1

8
2
54
8
-1
-1
-1
-1

45
1
-2
3
6
8
3
10
-4
2
5

6
5
4
3
2
1
9
8
7
-9

67
4
42
-1
31
2
3
-3
1
5
7

80
-1
7
30
-2
1
50
32
-1
4
5
