-8 -16 952
32 -40 -32 256 -40 552
992
-32 16 -200 720
24 -32 -16 -40 848
-32 -40 -32 864
-8 -24 -8 184 -96 632
-192 -8 776
-32 -32 32 -40 -16 800
8 -8 24 -32 -16 -8 -32 -16 784
-40 -8 8 -8 896
-24 32 -40 720 -40 -8 -48 24
-40 -8 24 -16 872
992
-16 -16 944
-8 48 -16 -40 -96 -320 -16 392
-8 -8 8 -40 -32 -24 24 -16 24 -16 -184 208 -16 280
-32 -24 216 -40 648
24 -56 136 -24 -80 -8 616
-32 -24 920
32 -256 688
-24 -32 -40 -64 -48 -32 -40 656
-56 -32 -8 -16 -8 832
992
568 -32 376
