-96 -112 -8 80 -88 568
-16 -112 848
-48 -48 -144 728
-96 -40 -160 672
144 -112 -136 48 -80 -160 264
-64 -40 872
160 -80 736
-104 880
-64 232 -136 536
-128 856
-88 896
176 -40 -40 -72 -88 -64 464
40 -8 80 -96 -104 624
72 -8 -120 -104 656
-136 16 -16 800
-48 144 -128 648
-120 -56 800
-56 -24 -48 88 -112 -136 480
-120 864
48 -48 880
-160 128 -64 616
32 -144 800
8 -48 -48 -120 -120 -112 -160 320
-24 256 -88 600
-72 -32 -64 24 -48 -88 -48 560
-72 -16 888
128 -32 -32 776
