-8 -16 -8 -24 -24 -24 840
-40 -16 -24 888
-24 32 -16 -8 -32 840
-40 -16 -32 880
24 -24 -16 904
-24 -24 -40 -16 856
-8 24 -40 8 -8 -16 840
-32 -24 920
-16 -32 -16 904
-16 24 -24 904
-16 8 -40 32 -24 832
-24 -32 -16 -24 864
-8 -8 -32 -40 -32 -16 808
-40 -40 -32 -8 -40 -40 744
-16 -40 920
-32 -16 -16 -8 -40 -8 824
-24 -40 -8 896
-16 -24 32 -16 -16 848
-8 -24 -24 912
-24 960
-40 16 -40 -16 848
-40 -8 -8 912
-8 976
-24 -32 -24 -24 -8 -40 792
-40 -16 920
-24 -40 -8 -24 864
-32 -40 904
-8 16 -24 -40 872
16 -16 -40 -32 -24 -40 -8 760
